<?xml version="1.0" encoding="UTF-8" standalone="no"?>
<svg
   xmlns:dc="http://purl.org/dc/elements/1.1/"
   xmlns:cc="http://creativecommons.org/ns#"
   xmlns:rdf="http://www.w3.org/1999/02/22-rdf-syntax-ns#"
   xmlns:svg="http://www.w3.org/2000/svg"
   xmlns="http://www.w3.org/2000/svg"
   xmlns:sodipodi="http://sodipodi.sourceforge.net/DTD/sodipodi-0.dtd"
   xmlns:inkscape="http://www.inkscape.org/namespaces/inkscape"
   viewBox="0 0 603.18823 415.34979"
   height="415.34979"
   width="603.18823"
   xml:space="preserve"
   id="svg2"
   version="1.1"
   sodipodi:docname="ipm_logo_white.svg"
   inkscape:version="1.0.2 (394de47547, 2021-03-26)"><sodipodi:namedview
     pagecolor="#ffffff"
     bordercolor="#666666"
     borderopacity="1"
     objecttolerance="10"
     gridtolerance="10"
     guidetolerance="10"
     inkscape:pageopacity="0"
     inkscape:pageshadow="2"
     inkscape:window-width="2529"
     inkscape:window-height="1425"
     id="namedview34"
     showgrid="false"
     inkscape:zoom="2.4268701"
     inkscape:cx="301.59412"
     inkscape:cy="207.6749"
     inkscape:window-x="26"
     inkscape:window-y="23"
     inkscape:window-maximized="0"
     inkscape:current-layer="svg2" /><metadata
     id="metadata8"><rdf:RDF><cc:Work
         rdf:about=""><dc:format>image/svg+xml</dc:format><dc:type
           rdf:resource="http://purl.org/dc/dcmitype/StillImage" /><dc:title></dc:title></cc:Work></rdf:RDF></metadata><defs
     id="defs6"><clipPath
       id="clipPath18"
       clipPathUnits="userSpaceOnUse"><path
         id="path16"
         d="M 0,468 H 468 V 0 H 0 Z" /></clipPath></defs><g
     transform="matrix(1.3333333,0,0,-1.3333333,-18.225653,509.98565)"
     id="g10"
     style="fill:#ffffff"><g
       transform="matrix(1.1834035,0,0,1.1834035,-43.992045,-41.583634)"
       id="g12"
       style="fill:#ffffff"><g
         clip-path="url(#clipPath18)"
         id="g14"
         style="fill:#ffffff"><g
           transform="translate(155.8149,323.0322)"
           id="g20"
           style="fill:#ffffff"><path
             id="path22"
             style="fill:#ffffff;fill-opacity:1;fill-rule:nonzero;stroke:none"
             d="m 0,0 c 0,10.705 2.822,8.193 1.711,11.959 -2.234,7.533 -3.988,14.814 -3.988,14.814 h 91.141 v -68.919 h 8.541 v 77.464 h -103.1 c -6.104,0 -5.701,-11.966 -5.701,-11.966 -0.319,-0.666 3.453,-6.827 5.13,-11.393 0.059,-0.154 -3.162,-5.814 -1.709,-11.389 0.889,-3.418 -7.404,-6.322 -7.404,-15.384 0,-7.002 14.236,-17.489 14.236,-21.065 0,-0.807 -0.621,-0.635 -1.705,-6.267 h 8.545 c 0.967,5.064 1.709,6.828 1.709,8.544 0,4.157 -14.81,16.686 -14.81,18.788 C -7.404,-9.168 0,-7.633 0,0" /></g><g
           transform="translate(210.2271,222.04)"
           id="g24"
           style="fill:#ffffff"><path
             id="path26"
             style="fill:#ffffff;fill-opacity:1;fill-rule:nonzero;stroke:none"
             d="m 0,0 -0.146,-18 4.531,0.07 -0.069,18.08 c -0.023,6.952 19.332,5.278 22.863,8.121 9.003,7.35 6.323,14.356 15.382,20.508 C 40.004,29.805 32.48,29.244 31.283,29.156 20.244,28.375 10.982,17.104 4.75,8.504 c -0.146,3.883 -0.146,6.48 -0.146,9.502 0,7.492 11.548,11.15 11.548,23.912 0,7.971 -13.92,29.359 -14.033,29.584 C -5.332,54.871 -12.127,49.93 -11.998,41.316 -11.811,29.094 0.1,25.285 0.1,17.883 0.1,14.32 0.139,12.1 -0.199,8.387 -3.166,12.543 -10.193,28.32 -26.795,28.949 l -10.393,0.399 C -28.664,22.613 -30.963,15.586 -23.049,8.359 -19.732,5.332 -0.031,5.346 0,0" /></g><g
           transform="translate(157.9575,227.1611)"
           id="g28"
           style="fill:#ffffff"><path
             id="path30"
             style="fill:#ffffff;fill-opacity:1;fill-rule:nonzero;stroke:none"
             d="m 0,0 c -2.73,-2.729 -7.078,-6.844 -13.125,-6.844 -6.986,0 -12.383,8.067 -12.383,13.992 0,5.6 5.182,13.803 12.526,13.803 5.931,0 10.636,-2.433 12.685,-4.99 v 18.457 c -4.74,1.484 -8.07,1.359 -12.828,1.359 -24.031,0 -33.15,-8.209 -33.447,-28.629 -0.264,-18.156 9.33,-29.187 33.447,-29.406 3.77,-0.027 12.938,-0.137 13.125,2.686 0.123,1.783 -0.023,15.75 0,19.572" /></g><g
           transform="translate(157.9575,227.1611)"
           id="g32"
           style="fill:#ffffff"><path
             id="path34"
             style="fill:#ffffff;fill-opacity:1;fill-rule:nonzero;stroke:none"
             d="m 0,0 c -2.73,-2.729 -7.078,-6.844 -13.125,-6.844 -6.986,0 -12.383,8.067 -12.383,13.992 0,5.6 5.182,13.803 12.526,13.803 5.931,0 10.636,-2.433 12.685,-4.99 v 18.457 c -4.74,1.484 -8.07,1.359 -12.828,1.359 -24.031,0 -33.15,-8.209 -33.447,-28.629 -0.264,-18.156 9.33,-29.187 33.447,-29.406 3.77,-0.027 12.938,-0.137 13.125,2.686 0.123,1.783 -0.023,15.75 0,19.572" /></g><path
           id="path36"
           style="fill:#ffffff;fill-opacity:1;fill-rule:nonzero;stroke:none"
           d="m 288.247,262.782 h -21.65 v -58.105 h 21.65 z" /><path
           id="path38"
           style="fill:#ffffff;fill-opacity:1;fill-rule:nonzero;stroke:none"
           d="m 288.247,262.782 h -21.65 v -58.105 h 21.65 z" /><g
           transform="translate(399.8877,262.7822)"
           id="g40"
           style="fill:#ffffff"><path
             id="path42"
             style="fill:#ffffff;fill-opacity:1;fill-rule:nonzero;stroke:none"
             d="M 0,0 C -2.734,-9.207 -5.705,-21.074 -8.969,-29.682 -12.355,-21.068 -15.756,-8.32 -18.24,0 h -21.063 c -0.455,-0.684 -7.636,-46 -10.011,-57.867 h 20.503 c 0.897,7.711 3.762,28.219 3.762,28.219 h 2.16 l 7.198,-28.231 h 13.685 c 0.342,2.625 6.002,21.055 6.91,28.231 l 2.504,0.027 c 1.422,-10.254 1.647,-9.91 2.846,-27.91 l 20.863,-0.055 c 0,0 -7.783,50.742 -9.56,57.572 C 21.557,-0.014 13.498,0 0,0" /></g><g
           transform="translate(399.8877,262.7822)"
           id="g44"
           style="fill:#ffffff"><path
             id="path46"
             style="fill:#ffffff;fill-opacity:1;fill-rule:nonzero;stroke:none"
             d="M 0,0 C -2.734,-9.207 -5.705,-21.074 -8.969,-29.682 -12.355,-21.068 -15.756,-8.32 -18.24,0 h -21.063 c -0.455,-0.684 -7.636,-46 -10.011,-57.867 h 20.503 c 0.897,7.711 3.762,28.219 3.762,28.219 h 2.16 l 7.198,-28.231 h 13.685 c 0.342,2.625 6.002,21.055 6.91,28.231 l 2.504,0.027 c 1.422,-10.254 1.647,-9.91 2.846,-27.91 l 20.863,-0.055 c 0,0 -7.783,50.742 -9.56,57.572 C 21.557,-0.014 13.498,0 0,0" /></g><g
           transform="translate(82.311,229.2119)"
           id="g48"
           style="fill:#ffffff"><path
             id="path50"
             style="fill:#ffffff;fill-opacity:1;fill-rule:nonzero;stroke:none"
             d="m 0,0 c -0.004,-2.674 -2.375,-6.234 -5.937,-6.234 -4.446,0 -5.633,2.964 -5.93,5.939 0,0 -0.065,28.697 -0.065,33.885 h -21.605 l -0.049,-33.617 c -0.023,-17.481 9.254,-23.832 27.649,-23.92 17.8,-0.088 27.583,6.74 27.593,24.24 l 0.01,33.277 H 0.023 Z" /></g><g
           transform="translate(82.311,229.2119)"
           id="g52"
           style="fill:#ffffff"><path
             id="path54"
             style="fill:#ffffff;fill-opacity:1;fill-rule:nonzero;stroke:none"
             d="m 0,0 c -0.004,-2.674 -2.375,-6.234 -5.937,-6.234 -4.446,0 -5.633,2.964 -5.93,5.939 0,0 -0.065,28.697 -0.065,33.885 h -21.605 l -0.049,-33.617 c -0.023,-17.481 9.254,-23.832 27.649,-23.92 17.8,-0.088 27.583,6.74 27.593,24.24 l 0.01,33.277 H 0.023 Z" /></g><g
           transform="translate(318.8311,204.6143)"
           id="g56"
           style="fill:#ffffff"><path
             id="path58"
             style="fill:#ffffff;fill-opacity:1;fill-rule:nonzero;stroke:none"
             d="m 0,0 0.129,19.012 c 3.406,0.019 5.33,0 10.371,0 5.615,0 20.02,7.336 20.02,18.867 0,17.711 -14.233,20.309 -19.875,20.309 L -20.904,58.168 -20.764,0 Z m 0.277,43.93 c 4.321,0 10.368,0.027 10.368,-5.901 0,-5.646 -5.76,-5.763 -10.368,-5.474 z" /></g><g
           transform="translate(318.8311,204.6143)"
           id="g60"
           style="fill:#ffffff"><path
             id="path62"
             style="fill:#ffffff;fill-opacity:1;fill-rule:nonzero;stroke:none"
             d="m 0,0 0.129,19.012 c 3.406,0.019 5.33,0 10.371,0 5.615,0 20.02,7.336 20.02,18.867 0,17.711 -14.233,20.309 -19.875,20.309 L -20.904,58.168 -20.764,0 Z m 0.277,43.93 c 4.321,0 10.368,0.027 10.368,-5.901 0,-5.646 -5.76,-5.763 -10.368,-5.474 z" /></g><g
           transform="translate(364.4365,174.9072)"
           id="g64"
           style="fill:#ffffff"><path
             id="path66"
             style="fill:#ffffff;fill-opacity:1;fill-rule:nonzero;stroke:none"
             d="M 0,0 C -16.523,12.762 -14.363,14.547 -17.609,14.547 H -30.363 C -12.271,-0.287 3.748,-13.932 7.969,-23.352 -0.742,-32.066 1.705,-34.74 1.705,-34.74 v -6.836 c 0,-3.309 -5.123,-2.565 -5.123,-7.979 0,-8.715 8.063,-10.656 7.973,-14.238 2.461,-3.535 -56.397,-7.41 -56.397,-7.41 -4.439,1.484 -8.732,1.168 -8.486,9.508 0.277,9.591 -9.68,12.304 -18.279,20.119 0,0 -18.457,11.955 -21.079,11.955 -14.185,0 -12.988,9.113 -27.909,9.113 -23.241,0 -17.714,7.184 -18.228,10.828 0,0.11 -8.92,23.918 -14.242,23.918 h -7.975 c 5.36,-6.513 15.745,-24.013 13.102,-32.468 -1.24,-3.965 7.629,-9.106 9.115,-9.106 8.996,0 21.638,-1.717 21.638,-1.717 2.953,-0.224 6.007,-7.431 17.665,-9.679 5.03,-0.979 7.247,1.4 10.887,-5.163 2.967,-5.337 6.16,-0.847 10.758,-3.382 21.875,-12.045 15.664,-29.559 21.074,-32.465 1.254,-0.69 70.803,6.092 71.203,6.262 2.848,1.476 5.696,5.757 5.696,11.396 0,10.131 -6.375,7.807 -6.676,10.473 -0.451,4.06 5.642,2.898 4.152,8.607 -2.498,9.59 1.481,9.789 6.822,15.723 C 19.074,-25.416 10.023,-7.746 0,0" /></g></g></g></g></svg>
