<?xml version="1.0" encoding="UTF-8" standalone="no"?>
<svg
   xmlns:dc="http://purl.org/dc/elements/1.1/"
   xmlns:cc="http://creativecommons.org/ns#"
   xmlns:rdf="http://www.w3.org/1999/02/22-rdf-syntax-ns#"
   xmlns:svg="http://www.w3.org/2000/svg"
   xmlns="http://www.w3.org/2000/svg"
   viewBox="0 0 648.39221 528.21155"
   height="528.21155"
   width="648.39221"
   xml:space="preserve"
   id="svg2"
   version="1.1"><metadata
     id="metadata8"><rdf:RDF><cc:Work
         rdf:about=""><dc:format>image/svg+xml</dc:format><dc:type
           rdf:resource="http://purl.org/dc/dcmitype/StillImage" /><dc:title></dc:title></cc:Work></rdf:RDF></metadata><defs
     id="defs6"><clipPath
       id="clipPath18"
       clipPathUnits="userSpaceOnUse"><path
         id="path16"
         d="M 52.52,95.906 H 435.711 V 406.664 H 52.52 Z" /></clipPath><clipPath
       id="clipPath50"
       clipPathUnits="userSpaceOnUse"><path
         id="path48"
         d="M 0,492 H 492 V 0 H 0 Z" /></clipPath><clipPath
       id="clipPath66"
       clipPathUnits="userSpaceOnUse"><path
         id="path64"
         d="M 52.52,95.906 H 435.711 V 406.664 H 52.52 Z" /></clipPath><clipPath
       id="clipPath86"
       clipPathUnits="userSpaceOnUse"><path
         id="path84"
         d="M 52.52,94.222 H 438.595 V 406.664 H 52.52 Z" /></clipPath><clipPath
       id="clipPath98"
       clipPathUnits="userSpaceOnUse"><path
         id="path96"
         d="M 0,492 H 492 V 0 H 0 Z" /></clipPath></defs><g
     transform="matrix(1.3333333,0,0,-1.3333333,-3.7890653,595.98042)"
     id="g10"><g
       transform="matrix(1.262406,0,0,1.262406,-64.548968,-65.314433)"
       id="g12"><g
         clip-path="url(#clipPath18)"
         id="g14"><g
           transform="translate(423.9297,313.1719)"
           id="g20"><path
             id="path22"
             style="fill:#eeab1f;fill-opacity:1;fill-rule:nonzero;stroke:none"
             d="m 0,0 c -8.293,-4.977 -16.586,-9.117 -24.879,-13.07 -16.582,-7.711 -33.16,-13.367 -49.738,-18.149 -33.16,-9.109 -66.301,-13 -99.445,-12.922 -33.137,0.18 -66.274,4.172 -99.387,13.446 -16.571,4.843 -33.129,10.562 -49.684,18.297 -8.281,3.953 -16.554,8.109 -24.832,13.101 -7.492,4.422 -14.98,9.297 -22.476,15.266 V -216.883 H 23.379 V 15.945 C 15.582,9.656 7.789,4.586 0,0" /></g><g
           transform="translate(53.3828,231.7422)"
           id="g24"><path
             id="path26"
             style="fill:#8fb33e;fill-opacity:1;fill-rule:nonzero;stroke:none"
             d="m 0,0 c 7.953,3.156 15.984,5.437 24.027,7.523 8.063,2.047 16.149,3.743 24.25,5.18 8.114,1.445 16.243,2.656 24.403,3.602 8.144,1.047 16.336,1.632 24.578,1.601 16.488,-0.039 33.195,-2.429 49.609,-1.633 16.422,0.696 32.656,3.414 48.785,7.25 8.075,1.844 16.141,3.789 24.227,5.344 8.101,1.617 16.238,2.75 24.367,3.969 16.266,2.43 32.524,4.891 48.902,6.008 16.383,1.094 32.836,1.484 49.352,1.187 16.52,-0.343 33.078,-1.203 49.805,-3.773 l 0.218,-2.414 C 376.559,28.258 360.434,24.375 344.254,21.008 328.074,17.695 311.832,15.07 295.527,13.133 279.219,11.242 262.781,10.68 246.355,10.086 238.133,9.789 229.93,9.422 221.676,9.508 213.426,9.57 205.145,10 196.871,10.336 180.309,11.148 163.852,10.852 147.578,8.516 131.301,6.305 115.316,0.891 99.113,-2.172 91.012,-3.703 82.855,-4.641 74.656,-5.102 66.465,-5.68 58.25,-5.969 50.016,-6.031 41.777,-6.109 33.516,-5.922 25.223,-5.383 16.926,-4.805 8.617,-4.039 0.215,-2.398 Z" /></g><g
           transform="translate(60.207,185.8516)"
           id="g28"><path
             id="path30"
             style="fill:#b3a7cd;fill-opacity:1;fill-rule:nonzero;stroke:none"
             d="m 0,0 c 31.766,9.438 63.836,17.203 95.98,24.602 32.161,7.304 64.442,13.976 96.829,20.125 32.386,6.14 64.871,11.734 97.476,16.711 32.617,4.875 65.317,9.359 98.328,12.179 C 356.859,64.164 324.785,56.375 292.641,48.992 260.473,41.695 228.187,35.016 195.805,28.891 163.418,22.766 130.93,17.18 98.328,12.203 65.707,7.328 33.012,2.844 0,0" /></g><g
           transform="translate(53.4883,200.0156)"
           id="g32"><path
             id="path34"
             style="fill:#ffe3af;fill-opacity:1;fill-rule:nonzero;stroke:none"
             d="m 0,0 c 31.918,8.375 64.105,15.109 96.348,21.453 32.261,6.242 64.617,11.86 97.054,16.945 32.438,5.102 64.965,9.625 97.59,13.54 32.633,3.82 65.332,7.226 98.293,8.968 C 357.371,52.492 325.191,45.758 292.945,39.414 260.687,33.188 228.332,27.555 195.891,22.492 163.449,17.422 130.922,12.898 98.301,8.977 65.664,5.172 32.965,1.75 0,0" /></g><g
           transform="translate(445.9766,253.4609)"
           id="g36"><path
             id="path38"
             style="fill:#668c74;fill-opacity:1;fill-rule:nonzero;stroke:none"
             d="m 0,0 c -13.414,-6.484 -27.215,-11.688 -41.066,-16.727 -6.942,-2.468 -13.918,-4.82 -20.934,-7.039 -7,-2.273 -14.066,-4.328 -21.223,-6.078 -14.312,-3.523 -28.961,-5.922 -43.152,-9.844 -14.199,-3.898 -28.105,-8.75 -41.859,-14.101 -6.895,-2.625 -13.75,-5.391 -20.68,-7.883 -6.922,-2.531 -13.902,-4.875 -20.883,-7.219 -13.949,-4.695 -27.89,-9.437 -42.039,-13.515 -7.066,-2.032 -14.164,-4.008 -21.293,-5.828 l -10.703,-2.75 -10.746,-2.602 c -14.363,-3.352 -28.774,-6.531 -43.453,-8.82 l -0.356,1.156 c 13.489,6.234 27.239,11.594 41.051,16.766 l 10.383,3.812 10.422,3.649 c 6.949,2.445 13.945,4.734 20.961,6.968 14.027,4.453 28.254,8.25 42.465,12.094 7.109,1.906 14.21,3.844 21.378,5.578 7.149,1.774 14.383,3.274 21.571,4.922 14.418,3.18 28.676,6.859 42.652,11.5 13.977,4.625 27.5,10.742 41.356,15.758 6.929,2.508 13.949,4.726 21.031,6.719 7.07,2.054 14.179,3.968 21.32,5.773 14.32,3.492 28.688,6.82 43.442,8.867 z" /></g><g
           transform="translate(53.4883,299.9844)"
           id="g40"><path
             id="path42"
             style="fill:#184686;fill-opacity:1;fill-rule:nonzero;stroke:none"
             d="m 0,0 c 8.332,1.336 16.629,2.234 24.914,3 8.281,0.766 16.543,1.312 24.809,1.797 16.515,0.906 32.98,1.25 49.429,1.281 32.875,-0.047 65.637,-1.492 98.301,-4.172 32.66,-2.656 65.215,-6.593 97.66,-11.929 16.219,-2.727 32.41,-5.758 48.551,-9.368 8.07,-1.836 16.133,-3.726 24.176,-5.867 8.051,-2.109 16.09,-4.351 24.082,-7.047 -8.336,-1.351 -16.625,-2.258 -24.91,-3.015 -8.285,-0.789 -16.555,-1.336 -24.813,-1.828 -16.515,-0.907 -32.984,-1.258 -49.429,-1.282 -32.875,0.047 -65.637,1.492 -98.293,4.219 -32.665,2.703 -65.223,6.649 -97.661,11.984 -16.214,2.727 -32.41,5.766 -48.546,9.368 -8.079,1.82 -16.141,3.703 -24.18,5.836 C 16.039,-4.922 8,-2.68 0,0" /></g></g></g><g
       transform="matrix(1.262406,0,0,1.262406,-64.548968,-65.314433)"
       id="g44"><g
         clip-path="url(#clipPath50)"
         id="g46"><g
           transform="translate(53.4883,402.6172)"
           id="g52"><path
             id="path54"
             style="fill:#184686;fill-opacity:1;fill-rule:nonzero;stroke:none"
             d="m 0,0 h 60.605 c 22.614,0 33.637,-8.406 33.637,-28.703 0,-13.039 -7.828,-21.313 -20.586,-22.61 v -0.296 c 8.117,-0.86 20.153,-6.086 20.153,-18.852 v -23.336 c 0,-5.656 2.754,-8.555 5.363,-9.422 l -0.152,-0.289 H 60.313 c -3.481,0 -5.657,2.899 -5.657,7.539 v 22.758 c 0,8.844 -2.75,12.32 -10,12.32 h -5.504 v -42.617 H 0 Z m 39.152,-40.875 h 6.227 c 7.105,0 9.719,5.219 9.719,11.156 0,7.399 -4.641,9.719 -10.586,9.719 h -5.36 z" /></g><g
           transform="translate(157.4531,402.6172)"
           id="g56"><path
             id="path58"
             style="fill:#184686;fill-opacity:1;fill-rule:nonzero;stroke:none"
             d="M 0,0 H 80.32 V -24.648 H 39.148 v -15.36 H 76.984 V -62.039 H 39.148 v -16.82 H 80.32 v -24.649 H 0 Z" /></g></g></g><g
       transform="matrix(1.262406,0,0,1.262406,-64.548968,-65.314433)"
       id="g60"><g
         clip-path="url(#clipPath66)"
         id="g62"><g
           transform="translate(300.707,366.2422)"
           id="g68"><path
             id="path70"
             style="fill:#184686;fill-opacity:1;fill-rule:nonzero;stroke:none"
             d="m 0,0 v 9.414 c 0,5.219 -2.613,8.703 -8.402,8.703 -5.813,0 -8.418,-3.484 -8.418,-8.703 v -49.586 c 0,-5.219 2.605,-8.687 8.418,-8.687 5.789,0 8.402,3.468 8.402,8.687 v 11.313 h 38.559 c 0,-11.454 -1.883,-21.743 -8.696,-29.282 -6.668,-7.547 -18.418,-12.179 -38.265,-12.179 -40.317,0 -48.145,15.656 -48.286,54.945 0,42.477 10.29,54.945 48.129,54.945 38.856,0 47.118,-15.656 47.118,-39.57 z" /></g><g
           transform="translate(398.4297,374.2031)"
           id="g72"><path
             id="path74"
             style="fill:#eeab1f;fill-opacity:1;fill-rule:nonzero;stroke:none"
             d="m 0,0 c 0,3.336 -0.281,5.945 -1.453,7.828 -1.152,1.891 -3.473,2.906 -7.531,2.906 -4.207,0 -6.961,-3.765 -6.961,-7.687 0,-19.274 54.515,-7.828 54.515,-45.383 0,-27.398 -20.293,-35.945 -45.093,-35.945 -25.079,0 -50.891,3.336 -49.153,33.047 h 38.422 c 0.152,-4.055 0.438,-7.391 1.598,-9.86 1.168,-2.32 3.047,-3.773 6.383,-3.773 5.214,0 8.992,3.922 8.992,8.992 0,22.906 -54.231,7.984 -54.231,45.828 0,24.93 15.657,35.656 45.239,35.656 C 27.84,31.609 36.102,16.961 36.102,0 Z" /></g><g
           transform="translate(244.1797,160.0469)"
           id="g76"><path
             id="path78"
             style="fill:#5da0d3;fill-opacity:1;fill-rule:nonzero;stroke:none"
             d="m 0,0 c 3.371,3.273 6.953,6.023 10.617,8.602 3.656,2.562 7.418,4.882 11.254,7.039 3.836,2.164 7.734,4.171 11.715,5.992 3.941,1.89 8.023,3.469 12.269,4.648 8.485,2.367 17.641,3.164 25.899,6.086 8.285,2.852 16,7.047 23.402,12 3.719,2.43 7.414,4.914 11.215,7.156 3.789,2.274 7.707,4.219 11.609,6.227 7.793,4.008 15.582,8.047 23.75,11.172 8.172,3.125 16.543,5.781 25.102,7.969 8.586,2.156 17.305,3.976 26.504,4.648 l 0.68,-1.609 c -6.907,-6.11 -14.293,-11.094 -21.836,-15.727 -7.535,-4.609 -15.285,-8.75 -23.219,-12.43 -7.945,-3.648 -16.27,-6.421 -24.586,-9.195 -4.156,-1.398 -8.293,-2.844 -12.559,-3.969 -4.25,-1.156 -8.613,-2.07 -12.953,-3.039 C 90.156,33.727 81.766,31.133 73.938,27.187 66.082,23.312 59.125,17.32 51.5,12.891 47.695,10.664 43.715,8.852 39.605,7.352 35.523,5.773 31.367,4.375 27.145,3.133 22.922,1.898 18.637,0.82 14.242,-0.008 9.844,-0.82 5.383,-1.477 0.684,-1.602 Z" /></g></g></g><g
       transform="matrix(1.262406,0,0,1.262406,-64.548968,-65.314433)"
       id="g80"><g
         clip-path="url(#clipPath86)"
         id="g82"><g
           transform="translate(415.9375,108.875)"
           id="g88"><path
             id="path90"
             style="fill:#ffffff;fill-opacity:1;fill-rule:nonzero;stroke:none"
             d="M 0,0 C 0,0 23.863,78.813 -10.563,206.281 57.262,82.742 17.363,34.656 0,0" /></g></g></g><g
       transform="matrix(1.262406,0,0,1.262406,-64.548968,-65.314433)"
       id="g92"><g
         clip-path="url(#clipPath98)"
         id="g94"><g
           transform="translate(404.0859,124.6328)"
           id="g100"><path
             id="path102"
             style="fill:#ffffff;fill-opacity:1;fill-rule:nonzero;stroke:none"
             d="M 0,0 C 0,0 6.703,58.93 -56.027,103.703 -1.84,45.805 -10.906,-2.539 -4.109,-32.633 Z" /></g><g
           transform="translate(401.9883,168.3594)"
           id="g104"><path
             id="path106"
             style="fill:#ffffff;fill-opacity:1;fill-rule:nonzero;stroke:none"
             d="M 0,0 C 0,0 19.289,40.102 -35.555,109.688 -21.816,78.969 -5.461,39.258 0,0" /></g></g></g></g></svg>